{
  "$schema": "http://json-schema.org/draft-06/schema#",
  "type": "array",
  "items": {
    "type": "object",
    "properties": {
      "id":{ "type":"number" },
      "s":{ "type":"string" },
      "n":{ "type":"string" },
      "st":{ "type":"number" },
      "b":{" type":"boolean" },
      "su":{ "type":"boolean" },
      "m":{ "type":"boolean" },
      "lu":{ "type":"number" },
      "lc":{ "type":"number" },
      "la":{ "type":"number" },
      "lo":{ "type":"number" },
      "da":{ "type":"number" },
      "dx":{ "type":"number" },
      "ba":{ "type":"number" },
      "bx":{ "type":"number" }
    },
    "required": ["id", "s", "n", "st", "b", "su", "m", "lu", "lc", "la", "lo", "da", "dx", "ba", "bx"]
  }
}